…
``` r
library(ggseg.formats)
dk
#> 
#> ── dk ggseg atlas ──────────────────────────────────────────────────────────────
#> Type: cortical
#> Regions: 35
#> Hemispheres: left, right
#> Views: inferior, lateral, medial, superior
#> Palette: ✔
#> Rendering: ✔ ggseg
#> ✔ ggseg3d (vertices)
#> ────────────────────────────────────────────────────────────────────────────────
#> # A tibble: 70 × 4
#>    hemi  region                            label                      lobe      
#>    <chr> <chr>                             <chr>                      <chr>     
#>  1 left  banks of superior temporal sulcus lh_bankssts                temporal  
#>  2 left  caudal anterior cingulate         lh_caudalanteriorcingulate cingulate 
#>  3 left  caudal middle frontal             lh_caudalmiddlefrontal     frontal   
#>  4 left  corpus callosum                   lh_corpuscallosum          white mat…
#>  5 left  cuneus                            lh_cuneus                  occipital 
#>  6 left  entorhinal                        lh_entorhinal              temporal  
#>  7 left  fusiform                          lh_fusiform                temporal  
#>  8 left  inferior parietal                 lh_inferiorparietal        parietal  
#>  9 left  inferior temporal                 lh_inferiortemporal        temporal  
#> 10 left  isthmus cingulate                 lh_isthmuscingulate        cingulate 
#> # ℹ 60 more rows
```
…
