…
``` r
data(aseg)
aseg
#> 
#> ── aseg ggseg atlas ────────────────────────────────────────────────────────────
#> Type: subcortical
#> Regions: 18
#> Hemispheres: right, left, midline
#> Views: coronal, sagittal
#> Palette: ✔
#> Rendering: ✔ ggseg
#> ✔ ggseg3d (meshes)
#> ────────────────────────────────────────────────────────────────────────────────
#> # A tibble: 29 × 3
#>    hemi  region            label                  
#>    <chr> <chr>             <chr>                  
#>  1 right NA                NA                     
#>  2 left  NA                NA                     
#>  3 left  thalamus proper   Left-Thalamus-Proper   
#>  4 right thalamus proper   Right-Thalamus-Proper  
#>  5 right lateral ventricle Right-Lateral-Ventricle
#>  6 left  hippocampus       Left-Hippocampus       
#>  7 left  lateral ventricle Left-Lateral-Ventricle 
#>  8 right putamen           Right-Putamen          
#>  9 right amygdala          Right-Amygdala         
#> 10 left  putamen           Left-Putamen           
#> # ℹ 19 more rows
…
