…
``` r
data(tracula)
tracula
#> 
#> ── tracula ggseg atlas ─────────────────────────────────────────────────────────
#> Type: tract
#> Regions: 26
#> Hemispheres: midline, left, right
#> Views: axial_2, axial_4, coronal_3, coronal_4, sagittal_left, sagittal_midline,
#> sagittal_right
#> Palette: ✔
#> Rendering: ✔ ggseg
#> ✔ ggseg3d (centerlines)
#> ────────────────────────────────────────────────────────────────────────────────
#> # A tibble: 42 × 4
#>    hemi    region              label                group          
#>    <chr>   <chr>               <chr>                <chr>          
#>  1 midline anterior commissure acomm.bbr.prep       commissure     
#>  2 midline CC body central     cc.bodyc.bbr.prep    corpus callosum
#>  3 midline CC body parietal    cc.bodyp.bbr.prep    corpus callosum
#>  4 midline CC body prefrontal  cc.bodypf.bbr.prep   corpus callosum
#>  5 midline CC body premotor    cc.bodypm.bbr.prep   corpus callosum
#>  6 midline CC body temporal    cc.bodyt.bbr.prep    corpus callosum
#>  7 midline CC genu             cc.genu.bbr.prep     corpus callosum
#>  8 midline CC rostrum          cc.rostrum.bbr.prep  corpus callosum
#>  9 midline CC splenium         cc.splenium.bbr.prep corpus callosum
#> 10 left    arcuate fasciculus  lh.af.bbr.prep       association    
#> # ℹ 32 more rows
…
data(tracula)
tracula
#> 
#> ── tracula ggseg atlas ─────────────────────────────────────────────────────────
#> Type: tract
#> Regions: 26
#> Hemispheres: midline, left, right
#> Views: axial_2, axial_4, coronal_3, coronal_4, sagittal_left, sagittal_midline,
#> sagittal_right
#> Palette: ✔
#> Rendering: ✔ ggseg
#> ✔ ggseg3d (centerlines)
#> ────────────────────────────────────────────────────────────────────────────────
#> # A tibble: 42 × 4
#>    hemi    region              label                group          
#>    <chr>   <chr>               <chr>                <chr>          
#>  1 midline anterior commissure acomm.bbr.prep       commissure     
#>  2 midline CC body central     cc.bodyc.bbr.prep    corpus callosum
#>  3 midline CC body parietal    cc.bodyp.bbr.prep    corpus callosum
#>  4 midline CC body prefrontal  cc.bodypf.bbr.prep   corpus callosum
#>  5 midline CC body premotor    cc.bodypm.bbr.prep   corpus callosum
#>  6 midline CC body temporal    cc.bodyt.bbr.prep    corpus callosum
#>  7 midline CC genu             cc.genu.bbr.prep     corpus callosum
#>  8 midline CC rostrum          cc.rostrum.bbr.prep  corpus callosum
#>  9 midline CC splenium         cc.splenium.bbr.prep corpus callosum
#> 10 left    arcuate fasciculus  lh.af.bbr.prep       association    
#> # ℹ 32 more rows
```
