…
[`atlas_vertices()`](https://ggseg.github.io/ggseg.formats/reference/atlas_vertices.md)
returns the vertex data for cortical 3D rendering:

``` r
vert_data <- atlas_vertices(dk)
vert_data
#> ── <ggseg_vertices> data: 70 × 6 ───────────────────────────────────────────────
#> Vertices per region: 18 –759
#> # A tibble: 70 × 6
#>    label                      vertices    hemi  region              lobe  colour
#>    <chr>                      <list>      <chr> <chr>               <chr> <chr> 
#>  1 lh_bankssts                <int [126]> left  banks of superior … temp… #1964…
#>  2 lh_caudalanteriorcingulate <int [67]>  left  caudal anterior ci… cing… #7D64…
#>  3 lh_caudalmiddlefrontal     <int [232]> left  caudal middle fron… fron… #6419…
#>  4 lh_corpuscallosum          <int [198]> left  corpus callosum     whit… #7846…
#>  5 lh_cuneus                  <int [102]> left  cuneus              occi… #DC14…
#>  6 lh_entorhinal              <int [48]>  left  entorhinal          temp… #DC14…
#>  7 lh_fusiform                <int [308]> left  fusiform            temp… #B4DC…
#>  8 lh_inferiorparietal        <int [484]> left  inferior parietal   pari… #DC3C…
#>  9 lh_inferiortemporal        <int [271]> left  inferior temporal   temp… #B428…
#> 10 lh_isthmuscingulate        <int [123]> left  isthmus cingulate   cing… #8C14…
#> # ℹ 60 more rows
```

[`atlas_meshes()`](https://ggseg.github.io/ggseg.formats/reference/atlas_meshes.md)
returns mesh data for subcortical or tract 3D rendering:

``` r
mesh_data <- atlas_meshes(aseg)
mesh_data
#> ── <ggseg_meshes> data: 27 × 6 ─────────────────────────────────────────────────
#> # A tibble: 27 × 3
#>    label               vertices faces
#>    <chr>                  <int> <int>
#>  1 Left-Thalamus           1864  3724
#>  2 Left-Caudate            1512  3028
#>  3 Left-Putamen            1998  3992
#>  4 Left-Pallidum            723  1442
#>  5 Brain-Stem              4608  9212
#>  6 Left-Hippocampus        1892  3780
#>  7 Left-Amygdala            710  1416
#>  8 Left-Accumbens-area      432   860
#>  9 Left-VentralDC          1683  3366
#> 10 Left-vessel               77   150
#> # ℹ 17 more rows
```
…
